module telemetry

go 1.17

require (
	github.com/aws/aws-lambda-go v1.27.0
	github.com/aws/aws-sdk-go v1.41.17
	github.com/aws/aws-sdk-go-v2/config v1.9.0
	github.com/aws/aws-sdk-go-v2/service/dynamodb v1.6.0
)

require (
	github.com/alexrudd/cognito-srp/v4 v4.1.0 // indirect
	github.com/aws/aws-sdk-go-v2 v1.11.2 // indirect
	github.com/aws/aws-sdk-go-v2/credentials v1.5.0 // indirect
	github.com/aws/aws-sdk-go-v2/feature/ec2/imds v1.7.0 // indirect
	github.com/aws/aws-sdk-go-v2/internal/configsources v1.1.2 // indirect
	github.com/aws/aws-sdk-go-v2/internal/endpoints/v2 v2.0.2 // indirect
	github.com/aws/aws-sdk-go-v2/internal/ini v1.2.5 // indirect
	github.com/aws/aws-sdk-go-v2/service/cognitoidentityprovider v1.9.2 // indirect
	github.com/aws/aws-sdk-go-v2/service/internal/accept-encoding v1.4.0 // indirect
	github.com/aws/aws-sdk-go-v2/service/internal/endpoint-discovery v1.2.0 // indirect
	github.com/aws/aws-sdk-go-v2/service/internal/presigned-url v1.4.0 // indirect
	github.com/aws/aws-sdk-go-v2/service/sso v1.5.0 // indirect
	github.com/aws/aws-sdk-go-v2/service/sts v1.8.0 // indirect
	github.com/aws/smithy-go v1.9.0 // indirect
	github.com/jmespath/go-jmespath v0.4.0 // indirect
)
